Category,Post Title,Post Name,Author,Phone,Address,City,State,Zip,Email,FirstName,Phone,Region,Payment Status,Exp Date,User ID,Password,,,,,,,,,,,,,,,,,,,,
Auto,Ace Appraisal Service,Stan Cain,Stan Cain,(314) 393-7211,"3111 Highway K, Sullivan, MO, 63080, Sullivan, MO 63080",Sullivan,MO,63080,novacain@fidnet.com,Stan,(636) 629-1362,Mid West,PAID,3/9/2017,Stan,1AdaM3mb3r,,,,,,,,,,,,,,,,,,,,2
Property Damage,ACES Appraisal Group Inc.,Mike Wilson,Mike Wilson,(540) 268-5558,"PO Box 300, Christiansburg, VA 24068",Christiansburg,VA,24068,mwilson@acesappraisal.com,Mike,(540) 268-1167,Mike,PAID,3/9/2017,Mike,1AdaM3mb3r,,,,,,,,,,,,,,,,,,,,2
Heavy Equipment,"Action Appraisals, Inc.",Daniel Lloyd,Daniel Lloyd,(603) 863-4686,"44 North Main St, Newport, NH 03773",Newport,NH,3773,actappr@nhvt.net,Daniel,(603) 863-4573,North East,PAID,3/9/2017,Daniel,1AdaM3mb3r,,,,,,,,,,,,,,,,,,,,
Special Assignment,ADA Claims Services Inc,Stephen Beall,Stephen Beall,(800) 999-2791,"PO Box 12291, Columbus, GA 31904",Columbus,GA,31904,beallstephen@att.net,Stephen,(800) 365-7321,Stephen,PAID,3/9/2017,Stephen,1AdaM3mb3r,,,,,,,,,,,,,,,,,,,,
Motor Cycle,ADA of Eastern Iowa,David Rairden,David Rairden,(319) 665-6166,"85 East Zeller Street, North Liberty, IA 52317",North Liberty,IA,52317,ada@southslope.net,David,(319) 665-6170,Mid West,PAID,3/9/2017,David,1AdaM3mb3r,,,,,,,,,,,,,,,,,,,,10
Recreational Vehicle,ADA of El Paso,"Manuel Talamantes, Jr","Manuel Talamantes, Jr",(915) 821-7515,"9155 Dyer B-80, PMB 201, El Paso, TX 79924",El Paso,TX,79924,iadaelpaso2@msn.com,Manuel,(915) 821-7550,South West,PAID,3/9/2017,Manuel,1AdaM3mb3r,,,,,,,,,,,,,,,,,,,,2
Marine,ADA of Houston,Wayne Marsden,Wayne Marsden,(713) 988-9294,"8191 Southwest Fwy, Ste 104, Houston, TX 77074",Houston,TX,77074,iada@flash.net,Wayne,(713) 988-8878,South West,PAID,3/9/2017,Wayne,1AdaM3mb3r,,,,,,,,,,,,,,,,,,,,4
Auto,"ADA of Kansas, LLC",Larry Lusk,Larry Lusk,(316) 263-5793,"PO Box 16054, Wichita, KS 67216",Wichita,KS,67216,llusk@adaofks.com,Larry,(316) 263-7169,Mid West,PAID,3/9/2017,Larry,1AdaM3mb3r,,,,,,,,,,,,,,,,,,,,2
Property Damage,"ADA of Midland, Inc",Stanley Prather,Stanley Prather,(432) 697-7227,"PO Box 5201, Midland, TX 79704",Midland,TX,79704,adamidland@clearwire.net,Stanley,(432) 520-4066,South West,PAID,3/9/2017,Stanley,1AdaM3mb3r,,,,,,,,,,,,,,,,,,,,2
Heavy Equipment,ADA of San Angelo,Jimmy Bell,Jimmy Bell,(325) 949-3692,"1886 Pecos, San Angelo, TX 76902",San Angelo,TX,76902,adabell@gte.net,Jimmy,(325) 655-7525,South West,PAID,3/9/2017,Jimmy,1AdaM3mb3r,,,,,,,,,,,,,,,,,,,,2
Special Assignment,ADA of the Southwest,Barry Porter,Barry Porter,(505) 254-9999,"2007 Ridgecrest Dr SE, Albuquerque, NM 87108",Albuquerque,NM,87108,adasw@adasw.com,Barry,(505) 255-1199,Western,PAID,3/9/2017,Barry,1AdaM3mb3r,,,,,,,,,,,,,,,,,,,,15
Motor Cycle,Advantage Appraisal,John Cartina,John Cartina,(630) 595-4614,"313 E Windsor, Wood Dale, IL 60191",Wood Dale,IL,60191,advantageappraisal@amerritech.net,John,(630) 766-5586,Mid West,PAID,3/9/2017,John,1AdaM3mb3r,,,,,,,,,,,,,,,,,,,,5
Recreational Vehicle,Alasks Insurance Appraisals,David Lofland,David Lofland,(907) 345-4448,"PO Box 110050, Anchorage, AK 99511",Anchorage,AK,99511,aia@acsalaska.net,David,(907) 345-4450,Western,PAID,3/9/2017,David,1AdaM3mb3r,,,,,,,,,,,,,,,,,,,,2
Auto,Allstar Appraisals,Dexter McGaha,Dexter McGaha,(770) 529-9943,"1325 Grist Mill Dr, Acworth, GA 30101",Acworth,GA,30101,allstarappraisals@comcast.net,Dexter,(770) 529-4597,South East,PAID,3/9/2017,Dexter,1AdaM3mb3r,,,,,,,,,,,,,,,,,,,,2
Property Damage,"Ambro Adjustment, Inc.",William Ambrosino,William Ambrosino,(508) 634-8478,"AA Business Way, Hopedale, MA 01747",Hopedale,MA,1747,assignments@ambroadjust.com,William,(508) 634-8235,North East,PAID,3/9/2017,William,1AdaM3mb3r,,,,,,,,,,,,,,,,,,,,6
Heavy Equipment,"Amherst Appraisals, Inc.",Paul Zahrandnix,Paul Zahrandnix,(413) 586-7227,"245 Russell St Unit 17, Hadley, MA 01035",Hadley,MA,1035,paul@amherstappraisal.com,Paul,(413) 586-8514,North East,PAID,3/9/2017,Paul,1AdaM3mb3r,,,,,,,,,,,,,,,,,,,,2
Special Assignment,Appraisal & Claims Express,Steve McComb,Steve McComb,(406) 862-3205,"730 Tally Lake Road, Whitefish, MT 59937",Whitefish,MT,59937,stevem@acemtonline.com,Steve,(406) 862-8104,Western,PAID,3/9/2017,Steve,1AdaM3mb3r,,,,,,,,,,,,,,,,,,,,
Motor Cycle,"Appraisal Service of AR, Inc",Todd Jackson,Todd Jackson,(501) 372-2990,"200 Pulaski St, Little Rock, AR 72201",Little Rock,AR,72201,asa@adaark.com,Todd,(501) 372-2272,South West,PAID,3/9/2017,Todd,1AdaM3mb3r,,,,,,,,,,,,,,,,,,,,6
Recreational Vehicle,"Appraisal Service of Mississippi, LLC","Cary Hill, Jr","Cary Hill, Jr",(601) 856-2296,"PO Box 505, Madison, MS 39130",Madison,MS,39130,asm_llc@bellsouth.net,Cary,(601) 856-5068,South East,PAID,3/9/2017,Cary,1AdaM3mb3r,,,,,,,,,,,,,,,,,,,,2
Marine,"Appraisal Solutions, Inc.",Vernon Lovell,Vernon Lovell,(703) 858-7137,"44306 Ladiesburg Pl, Ashburn, VA 21047",Ashburn,VA,21047,vlovell@verizon.net,Vernon,,North East,PAID,3/9/2017,Vernon,1AdaM3mb3r,,,,,,,,,,,,,,,,,,,,
Auto,Appraisals by Premier,Robert Flint,Robert Flint,(304) 373-7237,"PO Box 71, Ripley, WV 25271",Ripley,WV,25271,pai@citynet.net,Robert,(304) 373-7238,North East,PAID,3/9/2017,Robert,1AdaM3mb3r,,,,,,,,,,,,,,,,,,,,2
Property Damage,Auto Damage Appraisal Specialists,Bob Loprete,Bob Loprete,(603) 267-7359,"PO Box 55, Alton Bay, NH 03908",Alton Bay,NH,3908,bjlrjl@metrocast.net,Bob,(603) 267-1825,North East,PAID,3/9/2017,Bob,1AdaM3mb3r,,,,,,,,,,,,,,,,,,,,2
Heavy Equipment,Auto Damage Appraisers,James Little,James Little,(918) 663-1201,"1231 S Detroit, Tulsa, OK 74120",Tulsa,OK,74120,jalheavy@tulsaconnect.com,James,(918) 663-4022,South West,PAID,3/9/2017,James,1AdaM3mb3r,,,,,,,,,,,,,,,,,,,,4
Special Assignment,"Auto Damage Appraisers, LLC",Jerry Ramsey,Jerry Ramsey,(318) 671-9840,"9824 Mansfield Road, Shreveport, LA 71118",Shreveport,LA,71118,adaauto@bellsouth.net,Jerry,(318) 671-9841,South West,PAID,3/9/2017,Jerry,1AdaM3mb3r,,,,,,,,,,,,,,,,,,,,2
Motor Cycle,Auto Inspection Service,Scott Brown,Scott Brown,(530) 672-9710,"PO Box  2508, Grass Valley, CA 95945",Grass Valley,CA,95945,scott@autoinspection.com,Scott,(530) 672-9711,Western,PAID,3/9/2017,Scott,1AdaM3mb3r,,,,,,,,,,,,,,,,,,,,2
Recreational Vehicle,"Autobody Damage Appraisers, Inc",Guido DiDonato,Guido DiDonato,(217) 753-4232,"2803 Old Rochester Road Ste A, Springfield, IL 62703",Springfield,IL,62703,iada@illinoisada.net,Guido,(217) 544-2277,Mid West,PAID,3/9/2017,Guido,1AdaM3mb3r,,,,,,,,,,,,,,,,,,,,5
Marine,Bell Rock Vehicle Appraisal,Jim Dolliver,Jim Dolliver,(928) 284-9444,"PO Box 21155, Sedona, AZ 86341",Sedona,AZ,86341,jimd@npgcable.com,Jim,(928) 284-9442,Western,PAID,3/9/2017,Jim,1AdaM3mb3r,,,,,,,,,,,,,,,,,,,,2
Auto,Carter Appraisal Service,Dale Carter,Dale Carter,(501) 851-3338,"13105 Clinton Road, North Little Rock, AR 72118",North Little Rock,AR,72118,claims@carterappraisalservice.com,Dale,(501) 851-3388,South West,PAID,3/9/2017,Dale,1AdaM3mb3r,,,,,,,,,,,,,,,,,,,,2
Property Damage,"CAS Claimserv, Inc",Stephen P. Costello,Stephen P. Costello,(513) 841-9292,"4551 Montgomery Road Ste 307, Cinncinnati, OH 45212",Cinncinnati,OH,45212,cincyappr@fuse.net,Stephen,(513) 841-9295,Mid West,PAID,3/9/2017,Stephen,1AdaM3mb3r,,,,,,,,,,,,,,,,,,,,5
Heavy Equipment,Central Adjustment Company,David McCullough,David McCullough,(501) 227-5506,"PO Box 25068, Little Rock, AR 72212",Little Rock,AR,72212,cac@centraladjustment.com,David,(501) 227-6903,South West,PAID,3/9/2017,David,1AdaM3mb3r,,,,,,,,,,,,,,,,,,,,4
Special Assignment,Central Valley Auto Appraising,Ray Druan,Ray Druan,(559) 625-0311,"PO Box 3366, Visalia, CA 93612",Visalia,CA,93612,cvaa@sbcglobal.net,Ray,(559) 625-1409,Western,PAID,3/9/2017,Ray,1AdaM3mb3r,,,,,,,,,,,,,,,,,,,,2
Motor Cycle,"ClaimSolution, Inc.",Mark Snow,Mark Snow,(913) 322-2300,"7930 Santa Fe Dr.Ste 201, Overland Park, KS 66204",Overland Park,KS,66204,info@claimsolution.com,Mark,(913) 322-2301,Mid West,PAID,3/9/2017,Mark,1AdaM3mb3r,,,,,,,,,,,,,,,,,,,,25
Recreational Vehicle,CMA Apprasial Service,William Phillips,William Phillips,(508) 885-7669,"PO Box 608, Spencer, MA 01562",Spencer,MA,1562,cmaserv@charter.net,William,(508) 885-5773,North East,PAID,3/9/2017,William,1AdaM3mb3r,,,,,,,,,,,,,,,,,,,,2
Marine,Colorado ADA,Phil Croft,Phil Croft,(303) 948-8879,"PO Box 350818, Westminster, CO 80035",Westminster,CO,80035,coloradoada@aol.com,Phil,(303) 973-1875,Western,PAID,3/9/2017,Phil,1AdaM3mb3r,,,,,,,,,,,,,,,,,,,,2
Auto,"Complete Claims Service, LLC",Mark Nathan,Mark Nathan,(516) 935-8770,"PO Box 71, Syosset, NY 11791",Syosset,NY,11791,admin@completeclaims.com,Mark,(516) 939-0520,North East,PAID,3/9/2017,Mark,1AdaM3mb3r,,,,,,,,,,,,,,,,,,,,5
Property Damage,"Correa Claims Service, Inc",Ron Correa,Ron Correa,(714) 671-4936,"595 Lambert Road, Brea, CA 92821",Brea,CA,92821,ron@correaclaims.com,Ron,(714) 671-4959,Western,PAID,3/9/2017,Ron,1AdaM3mb3r,,,,,,,,,,,,,,,,,,,,
Heavy Equipment,Damage Appraisal Services,Mark English,Mark English,(619) 246-4696,"4375 Niagara Ave, San Diego, CA 92107",San Diego,CA,92107,damageappsvcs@cox.net,Mark,(619) 222-7730,Western,PAID,3/9/2017,Mark,1AdaM3mb3r,,,,,,,,,,,,,,,,,,,,2
Special Assignment,Damage Appraisers of North America,Anthony Serio,Anthony Serio,(586) 752-1460,"215 Piney Hill, Oakland, MI 48363",Oakland,MI,48363,tserio@.damageana.com,Anthony,(586) 752-4537,Mid West,PAID,3/9/2017,Anthony,1AdaM3mb3r,,,,,,,,,,,,,,,,,,,,2
Motor Cycle,"Delta Claims Services, Inc.",Roy Guffey,Roy Guffey,(504) 837-1050,"3121 Ridgelake Dr Ste D, Metarie, LA 70002",Metarie,LA,70002,addelta@bellsouth.net,Roy,(504) 831-4405,South West,PAID,3/9/2017,Roy,1AdaM3mb3r,,,,,,,,,,,,,,,,,,,,4
Recreational Vehicle,Direct Claims,David Whitfield,David Whitfield,(800) 933-1862,"PMB 228 303 W Loop 281, Longview, TX 75605",Longview,TX,75605,charltonclaims@aol.com,David,(903) 234-2605,South West,PAID,3/9/2017,David,1AdaM3mb3r,,,,,,,,,,,,,,,,,,,,2
Marine,"Duhamel & Duhamel, LLC",Pete Duhamel,Pete Duhamel,(203) 792-2150,"PO Box 527, Danbury, CT 06810",Danbury,CT,6810,pduhamel@duhamels.com,Pete,(203) 791-8066,North East,PAID,3/9/2017,Pete,1AdaM3mb3r,,,,,,,,,,,,,,,,,,,,10
Auto,Everett Smith & Associates,Everett Smith,Everett Smith,(803) 731-0317,"PO Box 775, Edisto Beach, SC 29438",Edisto Beach,SC,29438,dispatch@everettsmith.com,Everett,(803) 798-6221,South East,PAID,3/9/2017,Everett,1AdaM3mb3r,,,,,,,,,,,,,,,,,,,,4
Property Damage,Fast Track Appraisal Service,Mechelle Begay,Mechelle Begay,(318) 732-48907,"2201 Red Cut Road, West Monroe, LA 71292",West Monroe,LA,71292,mbegay@yahoo.com,Mechelle,(318) 324-8906,South West,PAID,3/9/2017,Mechelle,1AdaM3mb3r,,,,,,,,,,,,,,,,,,,,2
Heavy Equipment,"Fast Track Claims, LLC",Joe Rivi,Joe Rivi,(216) 228-5600,"2079 Waterbury Road, Lakewood, OH 44107",Lakewood,OH,44107,joe@ftclaims.com,Joe,(216) 228-56011334,Mid West,PAID,3/9/2017,Joe,1AdaM3mb3r,,,,,,,,,,,,,,,,,,,,5
Special Assignment,Freese & Gianelli Claims Service,Dan Gomes,Dan Gomes,(209) 383-5991,"861 W 19th St, Merced, CA 95340",Merced,CA,95340,newclaims@freeseandgianelli.com,Dan,(209) 383-5283,Western,PAID,3/9/2017,Dan,1AdaM3mb3r,,,,,,,,,,,,,,,,,,,,10
Motor Cycle,Gem Adjusters,Edward May,Edward May,(406) 443-7346,"PMB 2335, Clancy, MT 59634",Clancy,MT,59634,gemadj@msn.com,Edward,(406) 495-1287,Western,PAID,3/9/2017,Edward,1AdaM3mb3r,,,,,,,,,,,,,,,,,,,,2
Recreational Vehicle,"Hawkeye Auto Damage Appraisers, Inc",Steve Schmitz,Steve Schmitz,(319) 232-1212,"1221 Magnolia Parkway, Waterloo, IA 50701",Waterloo,IA,50701,gus66imp@mchsi.com,Steve,(319) 232-1919,Mid West,PAID,3/9/2017,Steve,1AdaM3mb3r,,,,,,,,,,,,,,,,,,,,2
Marine,Hudson Valley Auto Appraisers of Albany,Michael Corbo,Michael Corbo,(518) 280-0222,"PO Box 9670, Schenectady, NY 12309",Schenectady,NY,12309,dispatch@hvaaalb.com,Marilyn,(518) 280-0225,North East,PAID,3/9/2017,Marilyn,1AdaM3mb3r,,,,,,,,,,,,,,,,,,,,2
Auto,IADA ASSOCIATION,John Williams Sr,John Williams Sr,,", ,  ",,,,,John,(FAX),John,PAID,3/9/2017,John,1AdaM3mb3r,,,,,,,,,,,,,,,,,,Directory Request,,
Property Damage,Imperial Claim Service,John Notaro,John Notaro,(216) 741-8184,"19 Tarbell Ave Ste 1, Cleveland, OH 44146",Cleveland,OH,44146,ics3315@gmail.com,John,(216) 741-3857,Mid West,PAID,3/9/2017,John,1AdaM3mb3r,,,,,,,,,,,,,,,,,,,,2
Heavy Equipment,Independent Damage Appraisals,Ron Pierson,Ron Pierson,(801) 298-0064,"PO Box 1276, Bountiful, UT 84011",Bountiful,UT,84011,ron.pierson@att.net,Ron,(801) 294-4755,Western,PAID,3/9/2017,Ron,1AdaM3mb3r,,,,,,,,,,,,,,,,,,,,2
Special Assignment,Independent Insurance Appraisals,Joe Chapman,Joe Chapman,(601) 546-2929,"Po Box 127, Pelahatchie, MS 39145",Pelahatchie,MS,39145,chapman_joe@msn.com,Joe,(866) 745-4459,South East,PAID,3/9/2017,Joe,1AdaM3mb3r,,,,,,,,,,,,,,,,,,,,2
Motor Cycle,Insurance Claims Services,"Frank Mariconti, Jr","Frank Mariconti, Jr",(201) 664-4345,"49 Old Hook Road, Westwood, NJ 07675",Westwood,NJ,7675,fk1414@aol.com,Frank,(201) 664-6693,North East,PAID,3/9/2017,Frank,1AdaM3mb3r,,,,,,,,,,,,,,,,,,,,
Recreational Vehicle,"Interstate Appraisal Service, Inc",Everett Nauha,Everett Nauha,(508) 923-3500,"PO Box 482, Halifax, MA 02338",Halifax,MA,2338,claims@interstateappraisal.com,Everett,(508) 923-0653,North East,PAID,3/9/2017,Everett,1AdaM3mb3r,,,,,,,,,,,,,,,,,,,,2
Marine,"Interstate Appraisal, Inc.",Dale Lavin,Dale Lavin,(517) 552-7810,"PO Box 1627, Brighton, MI 48116",Brighton,MI,48116,wdlavin@ameritech.net,Dale,(517) 552-7815,Mid West,PAID,3/9/2017,Dale,1AdaM3mb3r,,,,,,,,,,,,,,,,,,,,2
Auto,Interstate Auto Appraisers,Ron Petty,Ron Petty,(361) 289-7777,"5802 Leopard St, Corpus Christi, TX 78403",Corpus Christi,TX,78403,cciada@sbcglobal.net,Ron,(361) 289-7779,South West,PAID,3/9/2017,Ron,1AdaM3mb3r,,,,,,,,,,,,,,,,,,,,2
Property Damage,Iowa Auto Damage Appraisers,Ray Yergler,Ray Yergler,(515) 280-7711,"607 E. Euclid Ave, Des Moines, IA 50313",Des Moines,IA,50313,appraisers@iowaautodamage.com,Ray,(515) 280-1611,Mid West,PAID,3/9/2017,Ray,1AdaM3mb3r,,,,,,,,,,,,,,,,,,,,5
Heavy Equipment,"J&E Appraisal Service, Inc.",Michael M. Sellman,Michael M. Sellman,(206) 363-8205,"15029 Bothell Way NE Ste 500, Seattle, WA 98155",Seattle,WA,98155,office@jande.com,Michael,(206) 363-8183,Pacific,PAID,3/9/2017,Michael,1AdaM3mb3r,,,,,,,,,,,,,,,,,,,,4
Special Assignment,John R. DuMerer & Associates,John DuMerer,John DuMerer,(630) 543-7032,"1601 Courtland Ct, Addison, IL 60101",Addison,IL,60101,jrdumerer@comcast.net,John,(630) 543-8375,Mid West,PAID,3/9/2017,John,1AdaM3mb3r,,,,,,,,,,,,,,,,,,,,5
Motor Cycle,King Enterprises,Bob Kingsley,Bob Kingsley,(607) 722-1079,"PO Box 1078, Binghamton, NY 13902",Binghamton,NY,13902,hmrun123@aol.com,Bob,(607) 231-2886,North East,PAID,3/9/2017,Bob,1AdaM3mb3r,,,,,,,,,,,,,,,,,,,,2
Recreational Vehicle,Marr Appraisal Service,Cynthia Marr,Cynthia Marr,(315) 623-7119,"PO Box 91, Constantia, NY 13044",Constantia,NY,13044,cynthia@marrappraisals.com,Cynthia,(315) 623-7278,North East,PAID,3/9/2017,Cynthia,1AdaM3mb3r,,,,,,,,,,,,,,,,,,,,5
Marine,Material Damage Apprasials,James L. Drulias,James L. Drulias,(916) 925-8522,"2221 El Camino Ave, Sacramento, CA 95821",Sacramento,CA,95821,mdaone@pacbell.net,James,(916) 925-1485,Western,PAID,3/9/2017,James,1AdaM3mb3r,,,,,,,,,,,,,,,,,,,,4
Auto,Material Damage Contractor,Jerry Phillips,Jerry Phillips,(856) 424-8811,"1165 Marlkress Road Ste A, Cherry Hill, NJ 08003",Cherry Hill,NJ,8003,mdcclaims@rcn.com,Jerry,(856) 424-7857,North East,PAID,3/9/2017,Jerry,1AdaM3mb3r,,,,,,,,,,,,,,,,,,,,2
Property Damage,"MDC Statewide Appraisal Service, LLC",Nicholas Fazzino,Nicholas Fazzino,(860) 346-6144,"PO Box 2425, Middletown, CT 06457",Middletown,CT,6457,nick.fazzino@mdcsa.com,Nicholas,(860) 344-0073,North East,PAID,3/9/2017,Nicholas,1AdaM3mb3r,,,,,,,,,,,,,,,,,,,,2
Heavy Equipment,Metro Appraisal Company,Alvin Ray,Alvin Ray,(901) 324-3400,"3634 Park Ave, Memphis, TN 38111",Memphis,TN,38111,metroappr@aol.com,Alvin,(901) 324-3196,South East,PAID,3/9/2017,Alvin,1AdaM3mb3r,,,,,,,,,,,,,,,,,,,,4
Special Assignment,"Metro Appraisal, Inc.",Scott Eskine,Scott Eskine,(813) 286-7440,"3109 Litha Pinecrest Road, Valrico, FL 33594",Valrico,FL,33594,claims@metfl.com,Scott,(813) 286-8724,South East,PAID,3/9/2017,Scott,1AdaM3mb3r,,,,,,,,,,,,,,,,,,,,2
Motor Cycle,Michigan Appraisal Company,Leo Maki,Leo Maki,(616) 532-8260,"4246 Kalamazoo Ave SE Ste 201, Grand Rapids, MI 49518",Grand Rapids,MI,49518,michiganappraisal@comcast.net942 52nd St SE,Leo,(616) 532-8134,Mid West,PAID,3/9/2017,Leo,1AdaM3mb3r,,,,,,,,,,,,,,,,,,,,10
Recreational Vehicle,Midtown Auto Appraisal Service,David Winnick,David Winnick,(845) 357-6400,"24 Hillcrest Road, Suffern, NY 10901",Suffern,NY,10901,dave@midtownappraisal.com,David,(845) 357-2685,North East,PAID,3/9/2017,David,1AdaM3mb3r,,,,,,,,,,,,,,,,,,,,2
Marine,NACS Claims Solutions,Jim McCune,Jim McCune,(253) 288-0291,"38277 188th Ave SE, Auburn, WA 98092",Auburn,WA,98092,nacsolutions@skynetbb.com,Jim,(253) 351-673,Western,PAID,3/9/2017,Jim,1AdaM3mb3r,,,,,,,,,,,,,,,,,,,,2
Auto,"National Appraisal Service, Inc",Greg Lombardo,Greg Lombardo,(610) 279-5400,"1250 Germantown Pike Ste 105, Plymouth Meeting, PA 19462",Plymouth Meeting,PA,19462,assignments@naas4u.com,Greg,(610) 279-6060,North East,PAID,3/9/2017,Greg,1AdaM3mb3r,,,,,,,,,,,,,,,,,,,,2
Property Damage,Penn Del Adjustment Service,Charles Flemming,Charles Flemming,(302) 999-0196,"PO Box 5244, Wilmington, DE 19808",Wilmington,DE,19808,claims@penndel.com,Charles,(302) 999-0416,North East,PAID,3/9/2017,Charles,1AdaM3mb3r,,,,,,,,,,,,,,,,,,,,2
Heavy Equipment,Precision Auto Appraiser,James Cody,James Cody,(845) 359-2882,"PO Box 282, Tappan, NY 10983",Tappan,NY,10983,precappr@aol.com,James,(845) 359-0763,North East,PAID,3/9/2017,James,1AdaM3mb3r,,,,,,,,,,,,,,,,,,,,2
Special Assignment,"Professional Estimating Service, Inc",Chuck Stewart,Chuck Stewart,(251) 660-8894,"3737 Government Blvd #308, Mobile, AL 36693",Mobile,AL,36693,pes@professionalestimatingservice.com,Chuck,(251) 660-8555,South East,PAID,3/9/2017,Chuck,1AdaM3mb3r,,,,,,,,,,,,,,,,,,,,4
Motor Cycle,"QCS, Inc.",Mike Byers,Mike Byers,(864) 948-0517,"121 Metro Drive, Spartanburg, SC 29303",Spartanburg,SC,29303,m.f.byers@att.net,Mike,(864) 948-1034,South East,PAID,3/9/2017,Mike,1AdaM3mb3r,,,,,,,,,,,,,,,,,,,,4
Recreational Vehicle,Quick Appraisals,Michael Quick,Michael Quick,(443) 417-0914,"627 St Marys Road, Pylesville, MD 21132",Pylesville,MD,21132,mquickappraisals@aol.com,Michael,(410) 452-0992,North East,PAID,3/9/2017,Michael,1AdaM3mb3r,,,,,,,,,,,,,,,,,,,,
Marine,Rapid Appraisal Service,Scott Burrows,Scott Burrows,(603) 587-0843,"106 Brown Road, Candia, NH 03034",Candia,NH,3034,rapidappraisal@comcast.net,Scott,(603) 587-0853,North East,PAID,3/9/2017,Scott,1AdaM3mb3r,,,,,,,,,,,,,,,,,,,,2
Auto,Reliable ADA,Brady Murphy,Brady Murphy,(719) 391-7238,"PO Box 31433, Colorado Springs, CO 80931",Colorado Springs,CO,80931,reliapprsl@q.com,Brady,(719) 390-5512,Western,PAID,3/9/2017,Brady,1AdaM3mb3r,,,,,,,,,,,,,,,,,,,,2
Property Damage,Rush Appraisal Service,Rusty Rush,Rusty Rush,(806) 793-2002,"3309 67th St Ste 28, Lubbock, TX 79413",Lubbock,TX,79413,rushapp@rushappraisal.net,Rusty,(806) 793-7968,South West,PAID,3/9/2017,Rusty,1AdaM3mb3r,,,,,,,,,,,,,,,,,,,,2
Heavy Equipment,Saguaro Claims Services LLC,Craig Ashcroft,Craig Ashcroft,(623) 594-2151,"8618 W. St John Road, Peoria, AZ 85382",Peoria,AZ,85382,saguaroclaims@cox.net,Craig,(866) 507-3745,South West,PAID,3/9/2017,Craig,1AdaM3mb3r,,,,,,,,,,,,,,,,,,,,
Special Assignment,Service First ADA,Ed Federline,Ed Federline,(304_302-0557,"PO Box 574, Barboursville, WV 25504",Barboursville,WV,25504,service1st@comcast.net,Ed,(304) 302-0558,North East,PAID,3/9/2017,Ed,1AdaM3mb3r,,,,,,,,,,,,,,,,,,,,
Motor Cycle,"Sierra Appraisal & Adjusting Services, Inc",Scott Fisher,Scott Fisher,(775) 359-0340,"1475 Terminal Way Ste A-2, Reno, NV 89502",Reno,NV,89502,reno@sierraapprasial.com,Scott,(775) 359-8439,Western,PAID,3/9/2017,Scott,1AdaM3mb3r,,,,,,,,,,,,,,,,,,,,2
Recreational Vehicle,"South Coast Appraisal Service, Inc",Paul LaFrance,Paul LaFrance,(508) 998-5185,"PO Box 50105, New Bedford, MA 02745",New Bedford,MA,2745,office@southcoastappraisal.com,Paul,(508) 998-7788,North East,PAID,3/9/2017,Paul,1AdaM3mb3r,,,,,,,,,,,,,,,,,,,,2
Marine,South Texas Appraisal Service,Forrest Jackson,Forrest Jackson,(210) 558-3066,"PO Box 48, Harlingen, TX 78551",Harlingen,TX,78551,iadahgn@aol.com,Forrest,(210) 558-6886,South West,PAID,3/9/2017,Forrest,1AdaM3mb3r,,,,,,,,,,,,,,,,,,,,4
Auto,"Power Appraisal Service, Inc.",Mike Tilghman,Mike Tilghman,(301) 470-0077,"PO Box 417, Savage, MD 20763",Savage,MD,20763,mail@powerappraisal.com,Mike,(301) 497-1112,North East,PAID,3/9/2017,Mike,1AdaM3mb3r,,,,,,,,,,,,,,,,,,,,2
Property Damage,Southern Appraisal Service LLC,Shane Credle,Shane Credle,(757) 535-5984,"1020 Jewell Ave, Portsmouth, VA 23701",Portsmouth,VA,23701,sas.one@verizon.net,Shane,(757) 405-3514,North East,PAID,3/9/2017,Shane,1AdaM3mb3r,,,,,,,,,,,,,,,,,,,,2
Heavy Equipment,"Susquehanna Claims Service, Inc.",Pete Bahr,Pete Bahr,(570) 419-3960,"PO Box 1794, Williamsport, PA 17703",Williamsport,PA,17703,scs11@comcast.net,Pete,(570) 435-8078,North East,PAID,3/9/2017,Pete,1AdaM3mb3r,,,,,,,,,,,,,,,,,,,,2
Special Assignment,Tabrum  Damage Appraisers,Butch Coates,Butch Coates,(503) 682-6008,"17675 SW Farmington Road, Aloha, OR 97007",Aloha,OR,97007,tabrum1@verizon.net,Butch,(503) 591-8065,Western,PAID,3/9/2017,Butch,1AdaM3mb3r,,,,,,,,,,,,,,,,,,,,2
Motor Cycle,Taft Associates Service,Warren Taft,Warren Taft,(508) 473-2846,"148 Uxbridge Road, Mendon, MA 01756",Mendon,MA,1756,taftassign@taftnet.com,Warren,(508) 473-0903,North East,PAID,3/9/2017,Warren,1AdaM3mb3r,,,,,,,,,,,,,,,,,,,,2
Recreational Vehicle,"Tangible Weight, Inc",Johnny Hughes,Johnny Hughes,(919) 570-1605,"310 Woodland Drive, Wake Forest, NC 27587",Wake Forest,NC,27587,tangibleweight@tangibleweight.com,Johnny,(919) 570-1606,South East,PAID,3/9/2017,Johnny,1AdaM3mb3r,,,,,,,,,,,,,,,,,,,,4
Marine,"TEC Appraisers, Inc",Rob White,Rob White,(608) 274-6776,"3205 Latham Drive, Madison, WI 53713",Madison,WI,53713,tec@tec-one.com,Rob,(608) 274-3032,Mid West,PAID,3/9/2017,Rob,1AdaM3mb3r,,,,,,,,,,,,,,,,,,,,10
Auto,Tri-State Damage Appraisers,Tom Benny,Tom Benny,(605) 498-3449,"PO Box 89112, Sioux Falls, SD 57109",Sioux Falls,SD,57109,tristateappr@iw.net,Tom,(605) 498-7241,Mid West,PAID,3/9/2017,Tom,1AdaM3mb3r,,,,,,,,,,,,,,,,,,,,2
Property Damage,Universal Appraisal Company,Leonard Scheid,Leonard Scheid,(714) 374-5626,"PO Box 7078, Huntington Beach, CA 92615",Huntington Beach,CA,92615,universalappraisal@juno.com,Leonard,(714) 374-5898,Western,PAID,3/9/2017,Leonard,1AdaM3mb3r,,,,,,,,,,,,,,,,,,,,4
Heavy Equipment,Walker Appraisal Service,John Walker,John Walker,(770) 534-2450,"3469 Atlanta Highway, Flowery Branch, GA 30542",Flowery Branch,GA,30542,autodmg@aol.com,John,(770) 534-0232,South East,PAID,3/9/2017,John,1AdaM3mb3r,,,,,,,,,,,,,,,,,,,,4
Special Assignment,Ward's ADA,Bill Ward,Bill Ward,(607) 272-3400,"PO Box 765, Ithaca, NY 14850",Ithaca,NY,14850,wards@cnymail.com,Bill,(607) 277-7569,North East,PAID,3/9/2017,Bill,1AdaM3mb3r,,,,,,,,,,,,,,,,,,,,4
Motor Cycle,Western Claims & Appraisers,David Conger,David Conger,(520) 790-4808,"901 S. Craycroft Rd, Tucson, AZ 85711",Tucson,AZ,85711,info@westernclaimstucson/com,David,(520) 571-0419,Western,PAID,3/9/2017,David,1AdaM3mb3r,,,,,,,,,,,,,,,,,,,,4
Recreational Vehicle,Willison Claim Service,Scott Willison,Scott Willison,(800) 998-1395,"PO Box 50097, Indianapolis, IN 46250",Indianapolis,IN,46250,scott@wcs-claims.com,Scott,(800) 998-1397,Mid West,PAID,3/9/2017,Scott,1AdaM3mb3r
